<?xml version="1.0" standalone="no"?> <!DOCTYPE svg PUBLIC "-//W3C//DTD SVG 1.0//EN" "http://www.w3.org/TR/2001/REC-SVG-20010904/DTD/svg10.dtd" > <svg xmlns="http://www.w3.org/2000/svg" width="100%" height="100%">
<defs >
<font id="ProximaNova-Black" horiz-adv-x="469" ><font-face
    font-family="ProximaNova-Black"
    units-per-em="1000"
    panose-1="2 0 5 6 3 0 0 2 0 4"
    ascent="920"
    descent="-298"
    alphabetic="0" />
<missing-glyph horiz-adv-x="459" d="M405 -90H54V752H405V-90ZM373 -60V722H85V-60H373Z" />
<glyph unicode=" " glyph-name="space" horiz-adv-x="255" />
<glyph unicode="!" glyph-name="exclam" horiz-adv-x="280" d="M222 248H60L33 667H247L222 248ZM184 -11T141 -11T67 20T35 95Q35 139 66 170T141 202T215 171T247 95Q247 52 216 21Z" />
<glyph unicode="&quot;" glyph-name="quotedbl" d="M163 339H89Q34 562 34 585Q34 623 61 650T126 677T191 650T218 585Q218 575 204 514T176 396L163 339ZM380 339H307Q252 562 252 585Q252 623 279 650T344 677T408 650T435 585Q435 575 422 514T394 396L380 339Z" />
<glyph unicode="#" glyph-name="numbersign" horiz-adv-x="646" d="M377 0H250L303 158H224L172 0H45L98 158H12L47 267H135L178 399H91L125 507H215L268 667H395L342 507H420L473 667H600L546 507H634L601 399H510L466 267H557L523 158H429L377 0ZM339 267L383
399H305L262 267H339Z" />
<glyph unicode="$" glyph-name="dollar" horiz-adv-x="635" d="M262 -100V-8Q114 6 18 94L123 244Q213 158 338 158Q412 158 412 194Q412 211 374 220T281 239T172 268T79 335T40 456Q40 536 98 597T262 673V768H390V672Q513 655 600 584L492 441Q405 507 296
507Q245 507 245 477Q245 461 283 451T375 430T485 400T578 335T616 220Q616 124 557 65T390 -8V-100H262Z" />
<glyph unicode="%" glyph-name="percent" horiz-adv-x="784" d="M198 341Q118 341 69 389T20 508Q20 580 69 628T198 677Q279 677 328 629T378 508Q378 437 329 389T198 341ZM228 0H131L557 667H655L228 0ZM665 -12T585 -12T456 36T407 155Q407 227 456 275T585
324T714 276T764 155Q764 84 715 36ZM198 447Q224 447 240 462T256 508Q256 540 240 555T198 571Q173 571 158 556T142 508Q142 477 157 462T198 447ZM585 94Q643 94 643 155Q643 187 627 202T585 218Q528 218 528 155Q528 94 585 94Z" />
<glyph unicode="&amp;" glyph-name="ampersand" horiz-adv-x="652" d="M664 0H442L411 32Q334 -12 245 -12Q143 -12 78 40T12 189Q12 309 152 376Q115 450 115 512Q115 582 174 629T328 677Q409 677 468 636T527 526Q527 457 486 418T369 347Q390 317 407 298L443
252Q476 304 492 358L631 292Q588 203 536 141Q585 86 664 0ZM272 126Q296 126 319 136Q288 172 269 197Q245 227 220 263Q200 238 200 207Q200 172 221 149T272 126ZM291 507Q291 479 310 441Q376 473 376 515Q376 531 365 541T337 552Q317 552 304 540T291 507Z"
/>
<glyph unicode="&apos;" glyph-name="quotesingle" horiz-adv-x="252" d="M163 339H89Q34 562 34 585Q34 623 61 650T126 677T191 650T218 585Q218 575 204 514T176 396L163 339Z" />
<glyph unicode="(" glyph-name="parenleft" horiz-adv-x="346" d="M328 -110L214 -199Q135 -129 86 -4T37 243T86 490T214 685L328 598Q275 511 253 428T230 243Q230 142 252 59T328 -110Z" />
<glyph unicode=")" glyph-name="parenright" horiz-adv-x="347" d="M132 -199L18 -110Q71 -25 93 58T116 243Q116 345 94 428T18 598L132 685Q211 615 260 490T309 243T260 -4T132 -199Z" />
<glyph unicode="*" glyph-name="asterisk" horiz-adv-x="363" d="M222 343H141L145 448L57 392L17 462L109 510L17 558L57 628L145 572L141 677H222L217 572L305 628L346 558L253 510L346 462L305 392L217 448L222 343Z" />
<glyph unicode="+" glyph-name="plus" horiz-adv-x="510" d="M481 285H313V92H197V285H29V390H197V575H313V390H481V285Z" />
<glyph unicode="," glyph-name="comma" horiz-adv-x="281" d="M254 73Q254 -59 129 -147L56 -88Q81 -77 109 -48T147 8Q137 4 121 4Q84 4 59 30T34 97Q34 140 65 171T138 202Q186 202 220 167T254 73Z" />
<glyph unicode="-" glyph-name="hyphen" horiz-adv-x="300" d="M270 167H30V317H270V167Z" />
<glyph unicode="." glyph-name="period" horiz-adv-x="283" d="M184 -12T141 -12T66 20T34 95T66 170T141 202T216 170T248 95T216 20Z" />
<glyph unicode="/" glyph-name="slash" horiz-adv-x="362" d="M125 -20H0L237 687H362L125 -20Z" />
<glyph unicode="0" glyph-name="zero" horiz-adv-x="628" d="M410 -12T314 -12T150 37T50 163T18 333Q18 478 95 577T314 677T533 578T610 333Q610 240 579 164T479 38ZM221 166T314 166T407 333Q407 499 314 499T221 333Q221 166 314 166Z" />
<glyph unicode="1" glyph-name="one" horiz-adv-x="483" d="M429 0H227V410L114 298L0 417L255 667H429V0Z" />
<glyph unicode="2" glyph-name="two" horiz-adv-x="613" d="M586 0H41V157Q166 245 224 287T321 363T367 412T375 447Q375 470 353 484T298 499Q204 499 122 430L12 564Q66 622 141 649T294 677Q423 677 501 613T580 447Q580 377 533 315T369 176H586V0Z" />
<glyph unicode="3" glyph-name="three" horiz-adv-x="617" d="M300 -12Q205 -12 131 16T12 92L111 230Q147 199 198 183T292 166Q339 166 364 179T389 211T369 238T286 247Q209 247 189 245V424Q202 423 286 423Q378 423 378 456Q378 499 279 499Q186 499 116
441L21 567Q121 677 301 677Q436 677 507 627T579 492Q579 439 538 397T432 344Q493 337 541 295T590 188Q590 99 510 44T300 -12Z" />
<glyph unicode="4" glyph-name="four" horiz-adv-x="636" d="M541 0H339V107H18V262L261 667H541V283H618V107H541V0ZM339 283V493L213 283H339Z" />
<glyph unicode="5" glyph-name="five" horiz-adv-x="626" d="M311 -12Q136 -12 32 82L140 224Q210 166 309 166Q356 166 379 182T403 221Q403 245 381 260T315 276Q240 276 191 230L52 262V667H562V491H254V397Q307 448 393 448Q482 448 545 388T608 230Q608 119
529 54T311 -12Z" />
<glyph unicode="6" glyph-name="six" horiz-adv-x="625" d="M336 -12Q179 -12 99 83T18 332Q18 496 113 586T368 677Q491 677 576 619L491 463Q440 499 368 499Q312 499 267 469T222 383V381Q275 449 377 449Q473 449 543 390T613 228Q613 121 535 55T336 -12ZM323
166Q360 166 384 182T408 220Q408 249 380 263T315 278Q256 278 221 251Q224 214 249 190T323 166Z" />
<glyph unicode="7" glyph-name="seven" horiz-adv-x="575" d="M341 0H120L331 491H18V667H563V527L341 0Z" />
<glyph unicode="8" glyph-name="eight" horiz-adv-x="630" d="M394 -12T315 -12T172 6T63 69T18 178Q18 231 52 275T145 344Q29 392 29 498Q29 560 73 602T179 660T315 677T450 661T556 602T601 498Q601 392 484 344Q542 320 577 276T612 178Q612 113 568 69T459
7ZM315 422Q347 427 371 440T395 468Q395 488 374 500T315 513Q277 513 256 501T234 468Q234 453 258 440T315 422ZM315 152Q356 152 381 166T407 201Q407 219 379 233T315 253Q279 248 251 234T223 201Q223 180 248 166T315 152Z" />
<glyph unicode="9" glyph-name="nine" horiz-adv-x="625" d="M257 -11Q134 -11 49 47L134 203Q185 167 257 167Q320 167 361 200T403 282V285Q350 217 248 217Q152 217 82 276T12 438Q12 545 90 611T289 678Q446 678 526 583T607 334Q607 170 512 80T257 -11ZM310
388Q369 388 404 415Q401 452 376 476T301 500Q265 500 241 484T217 446Q217 417 245 403T310 388Z" />
<glyph unicode=":" glyph-name="colon" horiz-adv-x="266" d="M184 276T141 276T66 308T34 383T66 458T141 490T216 458T248 383T216 308ZM184 -12T141 -12T66 20T34 95T66 170T141 202T216 170T248 95T216 20Z" />
<glyph unicode=";" glyph-name="semicolon" horiz-adv-x="281" d="M184 276T141 276T66 308T34 384Q34 427 65 458T141 490T216 459T248 384Q248 340 216 308ZM254 74Q254 -58 129 -146L56 -87Q81 -76 109 -47T147 9Q137 5 121 5Q84 5 59 31T34 98Q34 141 65 172T138
203Q186 203 220 168T254 74Z" />
<glyph unicode="&lt;" glyph-name="less" horiz-adv-x="510" d="M481 90L29 270V400L481 580V455L147 334L481 215V90Z" />
<glyph unicode="=" glyph-name="equal" horiz-adv-x="510" d="M481 373H29V478H481V373ZM481 190H29V295H481V190Z" />
<glyph unicode="&gt;" glyph-name="greater" horiz-adv-x="510" d="M481 270L29 90V215L363 334L29 455V580L481 400V270Z" />
<glyph unicode="?" glyph-name="question" horiz-adv-x="450" d="M153 224Q126 261 126 319Q126 356 143 385T182 428T220 455T238 478Q238 499 199 499Q152 499 112 457L0 586Q42 631 101 654T222 677Q323 677 382 634T442 516Q442 477 428 446T392 397T350 364T315
332T300 297Q300 273 311 260L153 224ZM272 -12T228 -12T153 20T121 95T152 170T228 202T303 170T335 95T304 20Z" />
<glyph unicode="@" glyph-name="at" horiz-adv-x="783" d="M352 -70Q216 -70 126 20T35 244Q35 401 155 519T432 638Q573 638 660 552T747 343Q747 279 725 228T669 146T598 101T524 85Q440 85 421 151L419 158Q368 85 290 85Q217 85 175 134T133 259Q133 354
198 425T350 497Q434 497 472 441L481 485H639L593 268Q590 253 590 241Q590 203 618 203Q650 203 673 240T697 343Q697 458 625 526T428 594Q288 594 184 490T80 247Q80 130 159 52T357 -27Q450 -27 536 27L560 -7Q462 -70 352 -70ZM358 209Q400 209 432 250L451
345Q432 373 393 373Q349 373 322 343T295 273Q295 244 312 227T358 209Z" />
<glyph unicode="A" glyph-name="A" horiz-adv-x="710" d="M728 0H499L475 78H235L211 0H-18L228 667H482L728 0ZM421 254L355 469L289 254H421Z" />
<glyph unicode="B" glyph-name="B" horiz-adv-x="697" d="M473 0H54V667H459Q555 667 606 615T657 497Q657 436 625 396T543 344Q598 336 634 291T670 181Q670 106 619 53T473 0ZM412 421Q428 421 440 432T452 461T440 488T412 499H256V421H412ZM418 168Q440 168
452 179T465 210Q465 228 452 240T418 253H256V168H418Z" />
<glyph unicode="C" glyph-name="C" horiz-adv-x="697" d="M385 -12Q227 -12 123 84T18 333Q18 486 122 582T385 678Q505 678 578 622T688 484L514 403Q501 443 465 471T385 500Q313 500 268 452T223 333T268 214T385 166Q429 166 465 194T514 263L688 183Q672
146 648 115T588 53T500 6T385 -12Z" />
<glyph unicode="D" glyph-name="D" horiz-adv-x="736" d="M353 0H54V667H352Q514 667 616 579T718 334T616 89T353 0ZM352 176Q425 176 469 222T513 334Q513 405 472 448T353 491H256V176H352Z" />
<glyph unicode="E" glyph-name="E" horiz-adv-x="596" d="M560 0H54V667H560V491H256V425H553V249H256V176H560V0Z" />
<glyph unicode="F" glyph-name="F" horiz-adv-x="592" d="M256 0H54V667H560V491H256V425H553V249H256V0Z" />
<glyph unicode="G" glyph-name="G" horiz-adv-x="726" d="M385 -12Q229 -12 124 82T18 333T123 583T385 678Q495 678 568 628T678 504L508 417Q492 451 460 475T385 500Q313 500 268 452T223 333T268 214T385 166Q413 166 443 175T489 196V220H365V396H690V123Q568
-12 385 -12Z" />
<glyph unicode="H" glyph-name="H" horiz-adv-x="751" d="M697 0H495V255H256V0H54V667H256V431H495V667H697V0Z" />
<glyph unicode="I" glyph-name="I" horiz-adv-x="310" d="M256 0H54V667H256V0Z" />
<glyph unicode="J" glyph-name="J" horiz-adv-x="498" d="M186 -12Q70 -12 0 42L82 196Q126 166 168 166Q201 166 221 186T242 241V667H444V238Q444 113 375 51T186 -12Z" />
<glyph unicode="K" glyph-name="K" horiz-adv-x="671" d="M689 0H443L293 235L256 185V0H54V667H256V417L431 667H678L426 357L689 0Z" />
<glyph unicode="L" glyph-name="L" horiz-adv-x="536" d="M509 0H54V667H256V176H509V0Z" />
<glyph unicode="M" glyph-name="M" horiz-adv-x="900" d="M846 0H644V401L495 0H405L256 401V0H54V667H333L450 347L567 667H846V0Z" />
<glyph unicode="N" glyph-name="N" horiz-adv-x="750" d="M696 0H502L256 338V0H54V667H262L494 351V667H696V0Z" />
<glyph unicode="O" glyph-name="O" horiz-adv-x="766" d="M539 -12T383 -12T123 84T18 333T122 581T383 678T643 582T748 333T644 85ZM312 166T383 166T498 214T543 333T499 452T383 500T268 452T223 333T267 214Z" />
<glyph unicode="P" glyph-name="P" horiz-adv-x="662" d="M256 0H54V667H410Q523 667 586 602T650 438Q650 341 587 276T410 210H256V0ZM384 386Q411 386 428 399T445 438Q445 464 428 477T384 491H256V386H384Z" />
<glyph unicode="Q" glyph-name="Q" horiz-adv-x="766" d="M383 -12Q227 -12 123 84T18 333T122 581T383 678T643 582T748 333Q748 200 665 107L701 62L561 -50L514 8Q451 -12 383 -12ZM383 166H389L343 224L483 336L533 272Q543 299 543 333Q543 404 499 452T383
500T268 452T223 333T267 214T383 166Z" />
<glyph unicode="R" glyph-name="R" horiz-adv-x="678" d="M651 0H421L329 210H256V0H54V667H410Q523 667 586 602T650 438Q650 360 615 310T530 236L651 0ZM379 386Q407 386 426 399T445 439Q445 464 426 477T379 491H256V386H379Z" />
<glyph unicode="S" glyph-name="S" horiz-adv-x="613" d="M313 -12Q121 -12 3 94L108 244Q198 158 323 158Q397 158 397 194Q397 211 359 220T266 239T157 268T64 335T25 456Q25 547 98 612T302 677Q471 677 585 584L477 441Q390 507 281 507Q230 507 230 477Q230
463 257 453T326 438T415 418T505 383T573 321T601 220Q601 110 525 49T313 -12Z" />
<glyph unicode="T" glyph-name="T" horiz-adv-x="595" d="M399 0H197V491H18V667H577V491H399V0Z" />
<glyph unicode="U" glyph-name="U" horiz-adv-x="767" d="M547 -12T384 -12T138 66T54 274V667H259V281Q259 231 291 199T384 166Q443 166 475 198T508 281V667H713V275Q713 145 630 67Z" />
<glyph unicode="V" glyph-name="V" horiz-adv-x="710" d="M482 0H228L-18 667H211L355 218L499 667H728L482 0Z" />
<glyph unicode="W" glyph-name="W" horiz-adv-x="954" d="M775 0H563L477 378L391 0H179L-12 667H214L300 259L401 667H553L654 259L739 667H966L775 0Z" />
<glyph unicode="X" glyph-name="X" horiz-adv-x="684" d="M702 0H464L342 204L220 0H-18L205 342L-3 667H234L342 477L448 667H687L479 343L702 0Z" />
<glyph unicode="Y" glyph-name="Y" horiz-adv-x="664" d="M434 0H232V265L-18 667H209L333 442L455 667H682L434 265V0Z" />
<glyph unicode="Z" glyph-name="Z" horiz-adv-x="600" d="M564 0H36V160L290 491H36V667H557V508L302 176H564V0Z" />
<glyph unicode="[" glyph-name="bracketleft" horiz-adv-x="317" d="M299 -190H54V678H299V564H179V-76H299V-190Z" />
<glyph unicode="\" glyph-name="backslash" horiz-adv-x="362" d="M237 -20L0 687H125L362 -20H237Z" />
<glyph unicode="]" glyph-name="bracketright" horiz-adv-x="317" d="M263 -190H18V-76H138V564H18V678H263V-190Z" />
<glyph unicode="^" glyph-name="asciicircum" horiz-adv-x="450" d="M431 333H305L225 548L146 333H19L162 667H291L431 333Z" />
<glyph unicode="_" glyph-name="underscore" horiz-adv-x="564" d="M567 -154H-3V-40H567V-154Z" />
<glyph unicode="`" glyph-name="grave" horiz-adv-x="275" d="M275 556H155L0 700H155L275 556Z" />
<glyph unicode="a" glyph-name="a" horiz-adv-x="559" d="M509 0H329V46Q309 20 269 4T183 -12Q121 -12 69 29T17 147Q17 203 44 239T107 288T183 301Q287 301 329 248V298Q329 324 306 341T239 358Q167 358 105 311L44 422Q135 495 272 495Q320 495 360 486T435
455T489 392T509 292V0ZM258 105Q311 105 329 131V158Q311 184 258 184Q195 184 195 144Q195 105 258 105Z" />
<glyph unicode="b" glyph-name="b" horiz-adv-x="596" d="M230 179Q256 147 305 147Q343 147 369 172T395 242Q395 285 369 310T305 336Q257 336 230 303V179ZM230 0H50V667H230V432Q282 495 366 495Q458 495 518 427T579 242Q579 122 519 55T366 -12Q286 -12 230 51V0Z" />
<glyph unicode="c" glyph-name="c" horiz-adv-x="502" d="M288 -12Q171 -12 94 58T17 242Q17 355 94 425T288 495Q363 495 416 468T493 404L377 295Q350 336 296 336Q256 336 229 312T201 242T228 172T296 147Q348 147 377 189L493 79Q469 43 416 16T288 -12Z" />
<glyph unicode="d" glyph-name="d" horiz-adv-x="596" d="M546 0H366V51Q310 -12 230 -12Q138 -12 78 55T17 242Q17 359 77 427T230 495Q314 495 366 432V667H546V0ZM291 147Q339 147 366 180V304Q340 336 291 336Q253 336 227 311T201 242Q201 198 227 173T291 147Z" />
<glyph unicode="e" glyph-name="e" horiz-adv-x="543" d="M286 -12Q170 -12 94 57T17 242Q17 349 91 422T280 495Q389 495 460 422T531 223V186H203Q211 161 238 143T307 125Q330 125 365 135T418 159L492 48Q458 19 401 4T286 -12ZM360 300Q346 358 280 358Q217
358 201 300H360Z" />
<glyph unicode="f" glyph-name="f" horiz-adv-x="371" d="M267 0H87V327H7V483H87V505Q87 581 139 629T271 677Q373 677 422 625L357 525Q341 544 313 544Q295 544 281 533T267 505V483H365V327H267V0Z" />
<glyph unicode="g" glyph-name="g" horiz-adv-x="595" d="M253 -196Q124 -196 33 -124L109 4Q162 -49 253 -49Q296 -49 330 -27T365 52V78Q308 13 229 13Q136 13 77 74T17 254Q17 370 76 432T229 495Q312 495 365 432V483H545V52Q545 -8 526 -54T477 -126T408
-168T330 -190T253 -196ZM291 172Q310 172 331 180T365 203V305Q353 319 332 327T291 336Q251 336 226 316T201 254T226 192T291 172Z" />
<glyph unicode="h" glyph-name="h" horiz-adv-x="608" d="M558 0H378V269Q378 336 308 336Q265 336 231 298V0H51V667H231V428Q290 495 397 495Q477 495 517 454T558 345V0Z" />
<glyph unicode="i" glyph-name="i" horiz-adv-x="280" d="M182 518T140 518T69 547T39 619T68 690T140 720T211 691T241 619T212 548ZM230 0H50V483H230V0Z" />
<glyph unicode="j" glyph-name="j" horiz-adv-x="280" d="M182 518T140 518T69 547T39 619T68 690T140 720T211 691T241 619T212 548ZM29 -196Q-23 -196 -49 -189T-106 -163L-63 -30Q-38 -49 -3 -49Q50 -49 50 21V483H230V21Q230 -77 180 -136T29 -196Z" />
<glyph unicode="k" glyph-name="k" horiz-adv-x="557" d="M569 0H348L265 156L230 109V0H50V667H230V311L341 483H558L392 263L569 0Z" />
<glyph unicode="l" glyph-name="l" horiz-adv-x="280" d="M230 0H50V667H230V0Z" />
<glyph unicode="m" glyph-name="m" horiz-adv-x="897" d="M847 0H667V282Q667 306 654 321T612 336Q571 336 538 298V0H358V282Q358 336 303 336Q263 336 230 298V0H50V483H230V428Q249 452 293 473T390 495Q498 495 529 410Q552 445 597 470T698 495Q767 495
807 459T847 350V0Z" />
<glyph unicode="n" glyph-name="n" horiz-adv-x="607" d="M557 0H377V267Q377 336 307 336Q264 336 230 298V0H50V483H230V428Q289 495 396 495Q476 495 516 453T557 343V0Z" />
<glyph unicode="o" glyph-name="o" horiz-adv-x="577" d="M412 -12T288 -12T91 62T17 242T90 421T288 495T486 422T560 242T486 62ZM288 147Q329 147 352 173T375 242Q375 283 352 309T288 336Q248 336 225 310T202 242Q202 200 225 174T288 147Z" />
<glyph unicode="p" glyph-name="p" horiz-adv-x="595" d="M366 -12Q285 -12 230 51V-184H50V483H230V432Q283 495 366 495Q459 495 518 429T578 242Q578 121 519 55T366 -12ZM304 147Q342 147 368 172T394 242Q394 285 368 310T304 336Q285 336 264 327T230 303V180Q241
166 263 157T304 147Z" />
<glyph unicode="q" glyph-name="q" horiz-adv-x="595" d="M291 147Q309 147 331 156T365 180V303Q353 318 332 327T291 336Q253 336 227 311T201 242Q201 198 227 173T291 147ZM229 -12Q136 -12 77 54T17 242Q17 362 76 428T229 495Q312 495 365 432V483H545V-184H365V51Q310
-12 229 -12Z" />
<glyph unicode="r" glyph-name="r" horiz-adv-x="390" d="M230 0H50V483H230V430Q253 457 295 477T378 497V325Q363 330 337 330Q258 330 230 296V0Z" />
<glyph unicode="s" glyph-name="s" horiz-adv-x="490" d="M246 -12Q180 -12 114 8T9 62L81 183Q110 160 163 141T255 122Q303 122 303 143Q303 153 283 159T232 167T166 179T100 202T50 250T29 330Q29 399 86 447T245 495Q360 495 454 433L388 316Q363 336 325
351T246 366Q227 366 214 360T201 345Q201 335 229 330T297 318T378 297T447 247T475 154Q475 81 413 35T246 -12Z" />
<glyph unicode="t" glyph-name="t" horiz-adv-x="382" d="M253 -12Q172 -12 130 26T87 140V327H7V483H87V615H267V483H365V327H267V192Q267 173 278 160T307 147Q334 147 343 156L375 20Q339 -12 253 -12Z" />
<glyph unicode="u" glyph-name="u" horiz-adv-x="606" d="M556 0H376V54Q316 -12 210 -12Q130 -12 90 30T50 138V483H230V215Q230 147 300 147Q342 147 376 185V483H556V0Z" />
<glyph unicode="v" glyph-name="v" horiz-adv-x="535" d="M363 0H172L-15 483H175L267 207L360 483H550L363 0Z" />
<glyph unicode="w" glyph-name="w" horiz-adv-x="805" d="M677 0H481L402 270L324 0H128L-12 483H173L237 217L322 483H483L567 217L631 483H817L677 0Z" />
<glyph unicode="x" glyph-name="x" horiz-adv-x="521" d="M533 0H336L261 128L184 0H-12L146 248L-2 483H195L260 370L325 483H522L374 248L533 0Z" />
<glyph unicode="y" glyph-name="y" horiz-adv-x="535" d="M45 -188L70 -28Q86 -37 108 -37Q162 -37 171 -18L175 -8L-15 483H175L267 207L360 483H550L340 -60Q310 -138 256 -165T115 -196Q72 -196 45 -188Z" />
<glyph unicode="z" glyph-name="z" horiz-adv-x="486" d="M453 0H33V132L203 327H33V483H449V357L275 156H453V0Z" />
<glyph unicode="{" glyph-name="braceleft" horiz-adv-x="316" d="M299 -190H239Q163 -190 109 -140T54 -6V133Q54 162 41 179T2 197V291Q27 291 40 308T54 355V493Q54 577 108 627T239 678H299V564H239Q213 564 196 545T179 494V335Q179 264 133 244Q179 224
179 153V-5Q179 -37 196 -56T239 -76H299V-190Z" />
<glyph unicode="|" glyph-name="bar" horiz-adv-x="222" d="M168 -20H54V687H168V-20Z" />
<glyph unicode="}" glyph-name="braceright" horiz-adv-x="316" d="M17 -190V-76H77Q102 -76 119 -57T137 -5V153Q137 224 183 244Q137 264 137 335V494Q137 526 120 545T77 564H17V678H77Q153 678 207 628T262 493V355Q262 326 275 309T314 291V197Q289 197 276
180T262 133V-6Q262 -90 208 -140T77 -190H17Z" />
<glyph unicode="~" glyph-name="asciitilde" horiz-adv-x="518" d="M377 667L493 653Q489 601 482 563T458 484T410 423T334 401Q296 401 271 417T235 458T218 506T204 546T185 563Q153 563 143 401L25 414Q29 465 37 504T61 583T109 645T185 667Q223 667 248
650T284 610T301 562T315 521T334 504Q367 504 377 667Z" />
</font>
</defs>
</svg>
